stm32f4xx_it.c:14:6:NMI_Handler	4	static
stm32f4xx_it.c:27:6:HardFault_Handler	4	static
stm32f4xx_it.c:42:6:MemManage_Handler	4	static
stm32f4xx_it.c:57:6:BusFault_Handler	4	static
stm32f4xx_it.c:72:6:UsageFault_Handler	4	static
stm32f4xx_it.c:87:6:SVC_Handler	4	static
stm32f4xx_it.c:100:6:DebugMon_Handler	4	static
stm32f4xx_it.c:113:6:PendSV_Handler	4	static
stm32f4xx_it.c:126:6:SysTick_Handler	8	static
stm32f4xx_it.c:145:7:TIM2_IRQHandler	8	static
