main.c:66:5:main	72	static,ignoring_inline_asm
main.c:126:6:SystemClock_Config	88	static
main.c:166:13:MX_USART2_UART_Init	8	static
main.c:199:13:MX_GPIO_Init	32	static
main.c:222:6:Error_Handler	4	static,ignoring_inline_asm
